3 ggplot2 ile Veri Görselleştirme | R İLE ENERJİ PİYASASI VERİ ANALİZİ EL KİTABI
…
3.2 Nokta Grafiği (Scatter Plot)

İlk olarak bahsedilecek grafik türü olan “Scatter Plot” temel olarak var olan verinin noktasal dağılımını göstermek için kullanılır.

“Scatter Plot” için kullanılan fonksiyon geom_point()tir. x ekseninde “PTF”, y ekseninde ise “SMF” değerleri renkleri günlere göre değişecek şekilde gösterilirse (Öncelikle gün sütunu ekleniyor ve yeni bir tabloya ataması yapılıyor.),

plot_df <- ptfsmf %>% 
            mutate(Gün = as_date(Tarih))

Tabloya göz atalım,

plot_df

## # A tibble: 8,760 x 6
##    Tarih                 PTF   SMF   PDF   NDF Gün       
##    <dttm>              <dbl> <dbl> <dbl> <dbl> <date>    
##  1 2019-01-01 00:00:00 100.    5    4.85 103.  2019-01-01
##  2 2019-01-01 01:00:00  96.7  95.0 92.2   99.6 2019-01-01
##  3 2019-01-01 02:00:00  81.6  79.6 77.2   84.0 2019-01-01
##  4 2019-01-01 03:00:00  38.6   0    0     39.7 2019-01-01
##  5 2019-01-01 04:00:00  11.5   0    0     11.9 2019-01-01
##  6 2019-01-01 05:00:00  11.1   0    0     11.5 2019-01-01
##  7 2019-01-01 06:00:00  11.1   0    0     11.5 2019-01-01
##  8 2019-01-01 07:00:00  24.4   0    0     25.1 2019-01-01
##  9 2019-01-01 08:00:00  34.5   0    0     35.5 2019-01-01
## 10 2019-01-01 09:00:00  45.2   0    0     46.6 2019-01-01
## # … with 8,750 more rows
…
Örneğimizle devam edecek olursak,

plot_df <- ptfsmf %>% 
  mutate(Saat = hour(Tarih), Tarih = as.Date(Tarih), Fark_NDF_PTF = NDF - PTF) %>%
  filter(Tarih>"2019-05-31" & Tarih<"2019-07-01") %>%
  group_by(Saat) %>%
  summarise(PTF = mean(PTF), Fark_NDF_PTF = mean(Fark_NDF_PTF)) %>%
  ungroup() %>%
  pivot_longer(cols=c(PTF, Fark_NDF_PTF), names_to="Piyasa_Degiskeni", values_to="Fiyatlar")

Tabloya göz atalım,

plot_df

## # A tibble: 48 x 3
##     Saat Piyasa_Degiskeni Fiyatlar
##    <int> <chr>               <dbl>
##  1     0 PTF                 231. 
##  2     0 Fark_NDF_PTF         12.4
##  3     1 PTF                 253. 
##  4     1 Fark_NDF_PTF         20.2
##  5     2 PTF                 237. 
##  6     2 Fark_NDF_PTF         17.4
##  7     3 PTF                 205. 
##  8     3 Fark_NDF_PTF         13.6
##  9     4 PTF                 186. 
## 10     4 Fark_NDF_PTF         17.4
## # … with 38 more rows
…
“Line Chart”larda ise tahmin edilebileceği üzere geom_line() kullanılacaktır. Örneğin Şubat ayı saatlik ortalama PTF ve SMF değerleri incelenmek isteniyor. Öncelikle veri manipülasyonu yapılırsa,

plot_df <- ptfsmf %>% 
  mutate(Tarih = as_date(Tarih)) %>%
  filter(Tarih>"2019-01-31" & Tarih<"2019-03-01") %>%
  group_by(Tarih) %>%
  summarise(PTF = mean(PTF), SMF = mean(SMF)) %>%
  ungroup() %>%
  pivot_longer(cols=c(PTF, SMF), names_to="Piyasa_Degiskeni", values_to="Fiyatlar")

Bu şekilde bir tablo ortaya çıkıyor.

plot_df

## # A tibble: 56 x 3
##    Tarih      Piyasa_Degiskeni Fiyatlar
##    <date>     <chr>               <dbl>
##  1 2019-02-01 PTF                  224.
##  2 2019-02-01 SMF                  262.
##  3 2019-02-02 PTF                  251.
##  4 2019-02-02 SMF                  179.
##  5 2019-02-03 PTF                  187.
##  6 2019-02-03 SMF                  127.
##  7 2019-02-04 PTF                  253.
##  8 2019-02-04 SMF                  234.
##  9 2019-02-05 PTF                  257.
## 10 2019-02-05 SMF                  220.
## # … with 46 more rows
…
3.5 Isı Harıtası (Heat Map)

Bu grafik türünde ise iki farklı değişken baz alınarak temelde gözlenmek istenen değişkeni farklı renk tonlarında göstererek incelenmesi hedefleniyor. Bu işlem için ise geom_tile() fonksiyonu kullanılıyor ve asıl olarak gösterilmek istenen değişken fill fonksiyonuna veriliyor.

Örneğin Temmuz ayı için x ekseninde saatler, y ekseninde ise ayın günleri olacak şekilde Piyasa Takas Fiyatı (PTF) değişkeninin ısı grafiği için (Öncelikle veri manipülasyonu yapılıyor.),

plot_df <- ptfsmf %>%
  mutate(Saat = hour(Tarih), Tarih = as_date(Tarih)) %>%
  filter(Tarih>"2019-06-30" & Tarih<"2019-08-01") %>%
  select(Saat, Tarih, PTF)

plot_df

## # A tibble: 744 x 3
##     Saat Tarih        PTF
##    <int> <date>     <dbl>
##  1     0 2019-07-01 100. 
##  2     1 2019-07-01 204. 
##  3     2 2019-07-01 227  
##  4     3 2019-07-01 150  
##  5     4 2019-07-01 170. 
##  6     5 2019-07-01  50.0
##  7     6 2019-07-01 100  
##  8     7 2019-07-01 204. 
##  9     8 2019-07-01 300. 
## 10     9 2019-07-01 302. 
## # … with 734 more rows
…
